\relax 
\providecommand*\new@tpo@label[2]{}
\catcode `"\active 
\bibstyle{biblatex}
\bibdata{bachelor-blx,bachelor}
\citation{biblatex-control}
\abx@aux@refcontext{none/global//global/global}
\citation{*}
\providecommand \oddpage@label [2]{}
\@writefile{toc}{\boolfalse {citerequest}\boolfalse {citetracker}\boolfalse {pagetracker}\boolfalse {backtracker}\relax }
\@writefile{lof}{\boolfalse {citerequest}\boolfalse {citetracker}\boolfalse {pagetracker}\boolfalse {backtracker}\relax }
\@writefile{lot}{\boolfalse {citerequest}\boolfalse {citetracker}\boolfalse {pagetracker}\boolfalse {backtracker}\relax }
\select@language{ngerman}
\@writefile{toc}{\defcounter {refsection}{0}\relax }\@writefile{toc}{\select@language{ngerman}}
\@writefile{lof}{\defcounter {refsection}{0}\relax }\@writefile{lof}{\select@language{ngerman}}
\@writefile{lot}{\defcounter {refsection}{0}\relax }\@writefile{lot}{\select@language{ngerman}}
\citation{Chvatal}
\abx@aux@cite{Chvatal}
\abx@aux@segm{0}{0}{Chvatal}
\@writefile{toc}{\defcounter {refsection}{0}\relax }\@writefile{toc}{\contentsline {chapter}{\numberline {1}Vorwort}{4}}
\@writefile{lof}{\defcounter {refsection}{0}\relax }\@writefile{lof}{\addvspace {10\p@ }}
\@writefile{lot}{\defcounter {refsection}{0}\relax }\@writefile{lot}{\addvspace {10\p@ }}
\@writefile{lol}{\defcounter {refsection}{0}\relax }\@writefile{lol}{\addvspace {10\p@ }}
\@writefile{loa}{\defcounter {refsection}{0}\relax }\@writefile{loa}{\addvspace {10\p@ }}
\@writefile{toc}{\defcounter {refsection}{0}\relax }\@writefile{toc}{\contentsline {section}{\numberline {1.1}Von \textit  {Art Gallery Problem} und \textit  {watchmen Route}...}{4}}
\@writefile{toc}{\defcounter {refsection}{0}\relax }\@writefile{toc}{\contentsline {section}{\numberline {1.2}... zum \textit  {Surveillance Route}.}{4}}
\@writefile{toc}{\defcounter {refsection}{0}\relax }\@writefile{toc}{\contentsline {chapter}{\numberline {2}Einleitung}{5}}
\@writefile{lof}{\defcounter {refsection}{0}\relax }\@writefile{lof}{\addvspace {10\p@ }}
\@writefile{lot}{\defcounter {refsection}{0}\relax }\@writefile{lot}{\addvspace {10\p@ }}
\@writefile{lol}{\defcounter {refsection}{0}\relax }\@writefile{lol}{\addvspace {10\p@ }}
\@writefile{loa}{\defcounter {refsection}{0}\relax }\@writefile{loa}{\addvspace {10\p@ }}
\@writefile{toc}{\defcounter {refsection}{0}\relax }\@writefile{toc}{\contentsline {section}{\numberline {2.1}Grundlagen}{5}}
\@writefile{toc}{\defcounter {refsection}{0}\relax }\@writefile{toc}{\contentsline {subsection}{\numberline {2.1.1}Grundlagen der \textit  {watchman route}}{5}}
\@writefile{toc}{\defcounter {refsection}{0}\relax }\@writefile{toc}{\contentsline {section}{\numberline {2.2}Grundlagen zum \textit  {surveillance Route}}{7}}
\@writefile{toc}{\defcounter {refsection}{0}\relax }\@writefile{toc}{\contentsline {section}{\numberline {2.3}Angewandte Algorithmen}{8}}
\@writefile{toc}{\defcounter {refsection}{0}\relax }\@writefile{toc}{\contentsline {subsection}{\numberline {2.3.1}Triangulation}{8}}
\@writefile{toc}{\defcounter {refsection}{0}\relax }\@writefile{toc}{\contentsline {subsubsection}{\nonumberline \textit  {Trapezoidal Map}}{9}}
\@writefile{toc}{\defcounter {refsection}{0}\relax }\@writefile{toc}{\contentsline {subsubsection}{\nonumberline \textit  {Double Connected Edge List}}{12}}
\@writefile{toc}{\defcounter {refsection}{0}\relax }\@writefile{toc}{\contentsline {subsubsection}{\nonumberline \textit  {Triangulierung von x-monotone Polygone}}{14}}
\@writefile{loa}{\defcounter {refsection}{0}\relax }\@writefile{loa}{\contentsline {algocf}{\numberline {1}{\ignorespaces Algorithmus zur Triangulierung x-monotone Polygone}}{16}}
\@writefile{toc}{\defcounter {refsection}{0}\relax }\@writefile{toc}{\contentsline {subsection}{\numberline {2.3.2}\textit  {Ray shooting}}{17}}
\@writefile{loa}{\defcounter {refsection}{0}\relax }\@writefile{loa}{\contentsline {algocf}{\numberline {2}{\ignorespaces Algorithmus f\IeC {\"u}r ein simples \textit  {Ray shooting}}}{17}}
\@writefile{toc}{\defcounter {refsection}{0}\relax }\@writefile{toc}{\contentsline {chapter}{\numberline {3}Hauptteil}{19}}
\@writefile{lof}{\defcounter {refsection}{0}\relax }\@writefile{lof}{\addvspace {10\p@ }}
\@writefile{lot}{\defcounter {refsection}{0}\relax }\@writefile{lot}{\addvspace {10\p@ }}
\@writefile{lol}{\defcounter {refsection}{0}\relax }\@writefile{lol}{\addvspace {10\p@ }}
\@writefile{loa}{\defcounter {refsection}{0}\relax }\@writefile{loa}{\addvspace {10\p@ }}
\@writefile{toc}{\defcounter {refsection}{0}\relax }\@writefile{toc}{\contentsline {section}{\numberline {3.1}Konstruktion einer \textit  {watchman} Route}{19}}
\@writefile{toc}{\defcounter {refsection}{0}\relax }\@writefile{toc}{\contentsline {subsubsection}{\nonumberline \textit  {essential cuts} bestimmen}{19}}
\@writefile{loa}{\defcounter {refsection}{0}\relax }\@writefile{loa}{\contentsline {algocf}{\numberline {-}{\ignorespaces Prozedur\nobreakspace  Pr\IeC {\"u}fe auf Dominanz}}{20}}
\newlabel{alg:removemarked}{{Pr\IeC {\"u}fe auf Dominanz}{20}}
\@writefile{loa}{\defcounter {refsection}{0}\relax }\@writefile{loa}{\contentsline {algocf}{\numberline {3}{\ignorespaces Algorithmus um alle \textit  {essential Cuts} zu finden}}{21}}
\@writefile{toc}{\defcounter {refsection}{0}\relax }\@writefile{toc}{\contentsline {section}{\numberline {3.2}\textit  {Optimum surveillance Route} bestimmen}{22}}
\@writefile{loa}{\defcounter {refsection}{0}\relax }\@writefile{loa}{\contentsline {algocf}{\numberline {4}{\ignorespaces Algorithmus einen besseren \textit  {surveillance route} zu finden}}{24}}
\citation{Ntafos}
\abx@aux@cite{Ntafos}
\abx@aux@segm{0}{0}{Ntafos}
\citation{Tan1}
\abx@aux@cite{Tan1}
\abx@aux@segm{0}{0}{Tan1}
\citation{Tan1}
\abx@aux@segm{0}{0}{Tan1}
\citation{Efrat}
\abx@aux@cite{Efrat}
\abx@aux@segm{0}{0}{Efrat}
\citation{Langetepe}
\abx@aux@cite{Langetepe}
\abx@aux@segm{0}{0}{Langetepe}
\citation{Langetepe}
\abx@aux@segm{0}{0}{Langetepe}
\citation{Tan1}
\abx@aux@segm{0}{0}{Tan1}
\citation{Tan1}
\abx@aux@segm{0}{0}{Tan1}
\@writefile{toc}{\defcounter {refsection}{0}\relax }\@writefile{toc}{\contentsline {chapter}{\numberline {4}Schluss}{25}}
\@writefile{lof}{\defcounter {refsection}{0}\relax }\@writefile{lof}{\addvspace {10\p@ }}
\@writefile{lot}{\defcounter {refsection}{0}\relax }\@writefile{lot}{\addvspace {10\p@ }}
\@writefile{lol}{\defcounter {refsection}{0}\relax }\@writefile{lol}{\addvspace {10\p@ }}
\@writefile{loa}{\defcounter {refsection}{0}\relax }\@writefile{loa}{\addvspace {10\p@ }}
\@writefile{toc}{\defcounter {refsection}{0}\relax }\@writefile{toc}{\contentsline {section}{\numberline {4.1}Implementierung}{25}}
\@writefile{toc}{\defcounter {refsection}{0}\relax }\@writefile{toc}{\contentsline {section}{\numberline {4.2}Historie und verwandte Arbeiten}{25}}
\@writefile{toc}{\defcounter {refsection}{0}\relax }\@writefile{toc}{\contentsline {section}{\numberline {4.3}Fazit und Ausblick}{25}}
\@writefile{lof}{\defcounter {refsection}{0}\relax }\@writefile{lof}{\contentsline {figure}{\numberline {4.1}{\ignorespaces Das Tool zur Bestimmung des MSWR}}{26}}
\@writefile{lof}{\defcounter {refsection}{0}\relax }\@writefile{lof}{\contentsline {subfigure}{\numberline{(a)}{\ignorespaces {MSWR als gr\IeC {\"u}ne Linie}}}{26}}
\@writefile{lof}{\defcounter {refsection}{0}\relax }\@writefile{lof}{\contentsline {subfigure}{\numberline{(b)}{\ignorespaces {Triangulation in blau.}}}{26}}
\abx@aux@refcontextdefaultsdone
\abx@aux@defaultrefcontext{0}{Chvatal}{none/global//global/global}
\abx@aux@defaultrefcontext{0}{Ntafos}{none/global//global/global}
\abx@aux@defaultrefcontext{0}{Carlson}{none/global//global/global}
\abx@aux@defaultrefcontext{0}{Tan1}{none/global//global/global}
\abx@aux@defaultrefcontext{0}{Efrat}{none/global//global/global}
\abx@aux@defaultrefcontext{0}{Langetepe}{none/global//global/global}
\abx@aux@defaultrefcontext{0}{Suri}{none/global//global/global}
\abx@aux@defaultrefcontext{0}{Geometry}{none/global//global/global}
\abx@aux@defaultrefcontext{0}{euclidean}{none/global//global/global}
\global\@namedef{scr@dte@chapter@lastmaxnumwidth}{10.85587pt}
\global\@namedef{scr@dte@section@lastmaxnumwidth}{18.26904pt}
\global\@namedef{scr@dte@subsection@lastmaxnumwidth}{26.73907pt}
